[gd_resource type="ShaderMaterial" load_steps=4 format=2]

[sub_resource type="Shader" id=1]
code = "shader_type canvas_item;

uniform float tile_factor = 10.0;
uniform float aspect_ratio = 0.5;

uniform sampler2D uv_offset_texture : hint_black;
uniform vec2 uv_offset_scale = vec2(0.2, 0.2);
uniform float wave_size = 0.1;

uniform vec2 time_scale = vec2(0.05, 0.08);

void fragment() {
	vec2 base_uv_offset = UV * uv_offset_scale; // Determine the UV that we use to look up our DuDv
	base_uv_offset += TIME * time_scale; // pan or scroll the texture over time
	
	vec2 texture_based_offset = texture(uv_offset_texture, base_uv_offset).rg; // Get our offset
	texture_based_offset = texture_based_offset * 2.0 - 1.0; // Convert from 0.0 <=> 1.0 to -1.0 <=> 1.0
	texture_based_offset *= wave_size; // And apply our amplitude
	
	vec2 adjusted_uv = UV * tile_factor; // Scale the UVs to get a tiled texture
	adjusted_uv.y *= aspect_ratio; // Apply aspect ratio
	
	COLOR = texture(TEXTURE, adjusted_uv + texture_based_offset); // And lookup our color
}"

[sub_resource type="OpenSimplexNoise" id=2]
seed = 5
octaves = 2
period = 0.1
lacunarity = 2.65

[sub_resource type="NoiseTexture" id=3]
width = 128
height = 128
seamless = true
noise = SubResource( 2 )

[resource]
shader = SubResource( 1 )
shader_param/tile_factor = 1.19
shader_param/aspect_ratio = 0.71
shader_param/uv_offset_scale = Vector2( 0.05, 0.2 )
shader_param/wave_size = 0.08
shader_param/time_scale = Vector2( 0.02, 0.03 )
shader_param/uv_offset_texture = SubResource( 3 )

