[gd_scene load_steps=9 format=2]

[ext_resource path="res://scn/Main.gd" type="Script" id=1]
[ext_resource path="res://src/player/player.tscn" type="PackedScene" id=2]
[ext_resource path="res://spr/player/shepard.png" type="Texture" id=3]
[ext_resource path="res://tilemaps/tileset2.tres" type="TileSet" id=4]
[ext_resource path="res://src/enemy/boss.tscn" type="PackedScene" id=5]
[ext_resource path="res://props/Car.tscn" type="PackedScene" id=6]
[ext_resource path="res://spr/player/woolf.png" type="Texture" id=7]
[ext_resource path="res://fnt/font_16.tres" type="DynamicFont" id=8]

[node name="BossFight" type="Node2D"]
script = ExtResource( 1 )
scene_path = "res://scn/FinalScene.tscn"

[node name="CanvasLayer" type="CanvasLayer" parent="."]
layer = -1

[node name="ColorRect" type="ColorRect" parent="CanvasLayer"]
anchor_right = 1.0
anchor_bottom = 1.0
margin_left = -756.0
margin_top = -381.0
margin_right = 756.0
margin_bottom = 380.0
color = Color( 0.192157, 0.207843, 0.231373, 1 )

[node name="Player" parent="." instance=ExtResource( 2 )]
position = Vector2( 464.039, 1002.97 )

[node name="Sprite" parent="Player" index="2"]
texture = ExtResource( 3 )

[node name="BGTileMap" type="TileMap" parent="."]
z_index = -7
tile_set = ExtResource( 4 )
cell_size = Vector2( 32, 32 )
format = 1
tile_data = PoolIntArray( 1638409, 2, 0, 1638410, 2, 0, 1638411, 2, 0, 1638412, 2, 0, 1638413, 2, 0, 1638416, 2, 0, 1638417, 2, 0, 1638418, 2, 0, 1638419, 2, 0, 1638420, 2, 0, 1638421, 2, 0, 1638422, 2, 0, 1703945, 2, 0, 1703958, 2, 0, 1769481, 2, 0, 1769494, 2, 0, 1835017, 2, 0, 1835030, 2, 0, 1835047, 2, 0, 1835048, 2, 0, 1835049, 2, 0, 1835050, 2, 0, 1835051, 2, 0, 1835052, 2, 0, 1835053, 2, 0, 1835054, 2, 0, 1835055, 2, 0, 1835056, 2, 0, 1835057, 2, 0, 1900553, 2, 0, 1900593, 2, 0, 1966089, 2, 0, 1966129, 2, 0, 2031625, 2, 0, 2031665, 2, 0, 2097161, 2, 0, 2097201, 2, 0, 2162697, 2, 0, 2162710, 2, 0, 2162727, 2, 0, 2162728, 2, 0, 2162729, 2, 0, 2162730, 2, 0, 2162731, 2, 0, 2162737, 2, 0, 2228233, 2, 0, 2228246, 2, 0, 2228267, 2, 0, 2228273, 2, 0, 2293769, 2, 0, 2293782, 2, 0, 2293803, 2, 0, 2293809, 2, 0, 2359305, 2, 0, 2359306, 2, 0, 2359307, 2, 0, 2359308, 2, 0, 2359309, 2, 0, 2359310, 2, 0, 2359311, 2, 0, 2359312, 2, 0, 2359313, 2, 0, 2359314, 2, 0, 2359315, 2, 0, 2359316, 2, 0, 2359317, 2, 0, 2359318, 2, 0, 2359339, 2, 0, 2359345, 2, 0, 2424875, 2, 0, 2424881, 2, 0, 2490411, 2, 0, 2490417, 2, 0, 2555947, 2, 0, 2555953, 2, 0, 2621483, 2, 0, 2621489, 2, 0, 2687019, 2, 0, 2687025, 2, 0, 2752555, 2, 0, 2752561, 2, 0 )

[node name="TileMap" type="TileMap" parent="."]
z_index = -6
tile_set = ExtResource( 4 )
cell_size = Vector2( 32, 32 )
format = 1
tile_data = PoolIntArray( 1835031, 2, 0, 1835032, 2, 0, 1835033, 2, 0, 1835034, 2, 0, 1835035, 2, 0, 1835036, 2, 0, 1835037, 2, 0, 1835038, 2, 0, 1835039, 2, 0, 1835040, 2, 0, 1835041, 2, 0, 1835042, 2, 0, 1835043, 2, 0, 1835044, 2, 0, 1835045, 2, 0, 1835046, 2, 0, 1900576, 2, 0, 1966112, 2, 0, 2031644, 2, 0, 2097180, 2, 0, 2162711, 2, 0, 2162712, 2, 0, 2162713, 2, 0, 2162714, 2, 0, 2162715, 2, 0, 2162716, 2, 0, 2162717, 2, 0, 2162718, 2, 0, 2162719, 2, 0, 2162720, 2, 0, 2162721, 2, 0, 2162722, 2, 0, 2162723, 2, 0, 2162724, 2, 0, 2162725, 2, 0, 2162726, 2, 0, 2752544, 2, 0, 2752545, 2, 0, 2752546, 2, 0, 2752547, 2, 0, 2752548, 2, 0, 2752549, 2, 0, 2752550, 2, 0, 2752551, 2, 0, 2752552, 2, 0, 2752553, 2, 0, 2752554, 2, 0, 2818080, 2, 0, 2818097, 2, 0, 2883616, 2, 0, 2883633, 2, 0, 2949152, 2, 0, 2949169, 2, 0, 3014688, 2, 0, 3014705, 2, 0, 3080224, 2, 0, 3080241, 2, 0, 3145760, 2, 0, 3145777, 2, 0, 3211296, 2, 0, 3211313, 2, 0, 3276832, 2, 0, 3276849, 2, 0, 3342368, 2, 0, 3342385, 2, 0, 3407872, 2, 0, 3407873, 2, 0, 3407874, 2, 0, 3407875, 2, 0, 3407876, 2, 0, 3407877, 2, 0, 3407878, 2, 0, 3407879, 2, 0, 3407880, 2, 0, 3407881, 2, 0, 3407882, 2, 0, 3407883, 2, 0, 3407884, 2, 0, 3407885, 2, 0, 3407886, 2, 0, 3407887, 2, 0, 3407888, 2, 0, 3407889, 2, 0, 3407890, 2, 0, 3407904, 2, 0, 3407905, 2, 0, 3407906, 2, 0, 3407907, 2, 0, 3407908, 2, 0, 3407909, 2, 0, 3407910, 2, 0, 3407915, 2, 0, 3407916, 2, 0, 3407917, 2, 0, 3407918, 2, 0, 3407919, 2, 0, 3407920, 2, 0, 3407921, 2, 0, 3473408, 2, 0, 3473426, 2, 0, 3473446, 2, 0, 3473451, 2, 0, 3538944, 2, 0, 3538962, 2, 0, 3538982, 2, 0, 3538987, 2, 0, 3604480, 2, 0, 3604498, 2, 0, 3604518, 2, 0, 3604523, 2, 0, 3670016, 2, 0, 3670034, 2, 0, 3670054, 2, 0, 3670059, 2, 0, 3735552, 2, 0, 3735570, 2, 0, 3735590, 2, 0, 3735595, 2, 0, 3801088, 2, 0, 3801106, 2, 0, 3801126, 2, 0, 3801131, 2, 0, 3866624, 2, 0, 3866642, 2, 0, 3866662, 2, 0, 3866667, 2, 0, 3932160, 2, 0, 3932178, 2, 0, 3932198, 2, 0, 3932203, 2, 0, 3997696, 2, 0, 3997714, 2, 0, 3997734, 2, 0, 3997739, 2, 0, 4063232, 2, 0, 4063244, 2, 0, 4063250, 2, 0, 4063270, 2, 0, 4063275, 2, 0, 4128768, 2, 0, 4128780, 2, 0, 4128786, 2, 0, 4128787, 2, 0, 4128788, 2, 0, 4128789, 2, 0, 4128790, 2, 0, 4128791, 2, 0, 4128792, 2, 0, 4128793, 2, 0, 4128794, 2, 0, 4128795, 2, 0, 4128796, 2, 0, 4128797, 2, 0, 4128798, 2, 0, 4128799, 2, 0, 4128800, 2, 0, 4128801, 2, 0, 4128802, 2, 0, 4128803, 2, 0, 4128804, 2, 0, 4128805, 2, 0, 4128806, 2, 0, 4128811, 2, 0, 4194304, 2, 0, 4194316, 2, 0, 4194347, 2, 0, 4259840, 2, 0, 4259852, 2, 0, 4259883, 2, 0, 4325376, 2, 0, 4325388, 2, 0, 4325419, 2, 0, 4390912, 2, 0, 4390924, 2, 0, 4390955, 2, 0, 4456448, 2, 0, 4456460, 2, 0, 4456491, 2, 0, 4521984, 2, 0, 4521996, 2, 0, 4521997, 2, 0, 4521998, 2, 0, 4521999, 2, 0, 4522000, 2, 0, 4522001, 2, 0, 4522002, 2, 0, 4522003, 2, 0, 4522004, 2, 0, 4522005, 2, 0, 4522006, 2, 0, 4522007, 2, 0, 4522008, 2, 0, 4522009, 2, 0, 4522010, 2, 0, 4522011, 2, 0, 4522012, 2, 0, 4522013, 2, 0, 4522014, 2, 0, 4522015, 2, 0, 4522016, 2, 0, 4522017, 2, 0, 4522018, 2, 0, 4522019, 2, 0, 4522020, 2, 0, 4522021, 2, 0, 4522022, 2, 0, 4522023, 2, 0, 4522024, 2, 0, 4522025, 2, 0, 4522026, 2, 0, 4522027, 2, 0, 4587520, 2, 0, 4587532, 2, 0, 4653056, 2, 0, 4653068, 2, 0, 4718592, 2, 0, 4718604, 2, 0, 4784128, 2, 0, 4784140, 2, 0, 4849664, 2, 0, 4849676, 2, 0, 4915200, 2, 0, 4915212, 2, 0, 4980736, 2, 0, 4980748, 2, 0, 5046272, 2, 0, 5046273, 2, 0, 5046274, 2, 0, 5046275, 2, 0, 5046276, 2, 0, 5046284, 2, 0, 5111808, 2, 0, 5111812, 2, 0, 5111820, 2, 0, 5177344, 2, 0, 5177348, 2, 0, 5177356, 2, 0, 5242880, 2, 0, 5242892, 2, 0, 5242893, 2, 0, 5242894, 2, 0, 5242895, 2, 0, 5242896, 2, 0, 5242897, 2, 0, 5242898, 2, 0, 5242899, 2, 0, 5242900, 2, 0, 5242901, 2, 0, 5242902, 2, 0, 5242903, 2, 0, 5242904, 2, 0, 5242905, 2, 0, 5242906, 2, 0, 5308416, 2, 0, 5308428, 2, 0, 5308442, 2, 0, 5373952, 2, 0, 5373964, 2, 0, 5373978, 2, 0, 5439488, 2, 0, 5439500, 2, 0, 5439514, 2, 0, 5505024, 2, 0, 5505025, 2, 0, 5505026, 2, 0, 5505027, 2, 0, 5505028, 2, 0, 5505029, 2, 0, 5505030, 2, 0, 5505031, 2, 0, 5505035, 2, 0, 5505036, 2, 0, 5505050, 2, 0, 5570567, 2, 0, 5570586, 2, 0, 5636103, 2, 0, 5636122, 2, 0, 5701639, 2, 0, 5701658, 2, 0, 5767175, 2, 0, 5767194, 2, 0, 5832711, 2, 0, 5832730, 2, 0, 5898247, 2, 0, 5898266, 2, 0, 5963783, 2, 0, 5963784, 2, 0, 5963785, 2, 0, 5963786, 2, 0, 5963787, 2, 0, 5963788, 2, 0, 5963789, 2, 0, 5963790, 2, 0, 5963791, 2, 0, 5963792, 2, 0, 5963793, 2, 0, 5963794, 2, 0, 5963795, 2, 0, 5963796, 2, 0, 5963797, 2, 0, 5963798, 2, 0, 5963799, 2, 0, 5963800, 2, 0, 5963801, 2, 0, 5963802, 2, 0 )

[node name="Enemies" type="Node" parent="."]

[node name="Boss" parent="Enemies" instance=ExtResource( 5 )]
position = Vector2( 343.293, 711.108 )
input_vector_turbulence = Vector2( 12.63, 28.42 )

[node name="Props" type="Node" parent="."]

[node name="Car" parent="Props" instance=ExtResource( 6 )]
position = Vector2( 195.265, 1004.22 )
rotation = 0.3322

[node name="woolf" type="Sprite" parent="."]
position = Vector2( 547, 2786 )
rotation = -2.90256
scale = Vector2( 2, 2 )
texture = ExtResource( 7 )

[node name="Label" type="Label" parent="."]
margin_left = 578.263
margin_top = 2733.05
margin_right = 820.263
margin_bottom = 2882.05
custom_fonts/font = ExtResource( 8 )
text = "\"Try dashing around the fucker and use his bullets to continuously slow down time or some shit, I don't know. Also, he takes around 15 hits before dying. You're welcome.\""
autowrap = true


[editable path="Player"]
