[gd_scene load_steps=5 format=2]

[ext_resource path="res://scn/FinalScene.gd" type="Script" id=1]
[ext_resource path="res://props/Car.tscn" type="PackedScene" id=2]
[ext_resource path="res://spr/player/shepard.png" type="Texture" id=3]
[ext_resource path="res://spr/player/woolf.png" type="Texture" id=4]

[node name="FinalScene" type="Node2D"]
script = ExtResource( 1 )

[node name="Camera2D" type="Camera2D" parent="."]
current = true

[node name="Car" parent="." instance=ExtResource( 2 )]
position = Vector2( -127.877, -105.071 )
rotation = 1.21791

[node name="shepard" type="Sprite" parent="."]
position = Vector2( -123.651, -11.4415 )
rotation = 1.56592
scale = Vector2( 2, 2 )
texture = ExtResource( 3 )

[node name="shepard2" type="Sprite" parent="."]
position = Vector2( 73.9964, -13.2465 )
rotation = 4.61015
scale = Vector2( 2, 2 )
texture = ExtResource( 4 )

