[gd_scene load_steps=7 format=2]

[ext_resource path="res://scn/Main.gd" type="Script" id=1]
[ext_resource path="res://src/player/player.tscn" type="PackedScene" id=2]
[ext_resource path="res://tilemaps/tileset2.tres" type="TileSet" id=3]
[ext_resource path="res://src/enemy/singlet.tscn" type="PackedScene" id=4]
[ext_resource path="res://src/enemy/enemy.tscn" type="PackedScene" id=5]
[ext_resource path="res://props/Car.tscn" type="PackedScene" id=6]

[node name="Level3" type="Node2D"]
script = ExtResource( 1 )
scene_path = "res://scn/Cutscene4.tscn"

[node name="CanvasLayer" type="CanvasLayer" parent="."]
layer = -1

[node name="ColorRect" type="ColorRect" parent="CanvasLayer"]
anchor_right = 1.0
anchor_bottom = 1.0
margin_left = -756.0
margin_top = -381.0
margin_right = 756.0
margin_bottom = 380.0
color = Color( 0.376471, 0.0745098, 0.45098, 1 )

[node name="Player" parent="." instance=ExtResource( 2 )]
position = Vector2( 862.276, 416.549 )

[node name="BGTileMap" type="TileMap" parent="."]
z_index = -7
tile_set = ExtResource( 3 )
cell_size = Vector2( 32, 32 )
format = 1
tile_data = PoolIntArray( -786418, 8, 0, -720882, 8, 0, -655346, 8, 0, -589810, 8, 0, -524274, 8, 0, -458738, 8, 0, -393202, 8, 0, -327666, 8, 0, -262130, 8, 0, -196594, 8, 0, -65525, 13, 0, -65519, 536870924, 0, 262155, 2, 0, 262156, 2, 0, 262157, 2, 0, 262158, 2, 0, 262159, 2, 0, 262160, 2, 0, 262161, 2, 0, 262162, 2, 0, 262163, 2, 0, 262164, 2, 0, 262165, 2, 0, 262166, 2, 0, 262167, 2, 0, 262168, 2, 0, 262169, 2, 0, 262170, 2, 0, 262171, 2, 0, 327691, 2, 0, 327709, 6, 0, 327710, 6, 0, 327711, 6, 0, 327712, 6, 0, 327713, 6, 0, 327714, 6, 0, 327715, 6, 0, 327716, 6, 0, 327717, 6, 0, 327718, 6, 0, 393227, 2, 0, 393245, 6, 0, 393246, 6, 0, 393247, 6, 0, 393248, 6, 0, 393249, 6, 0, 393250, 6, 0, 393251, 6, 0, 393252, 6, 0, 393253, 6, 0, 393254, 6, 0, 393255, 6, 0, 393256, 6, 0, 393257, 6, 0, 393258, 6, 0, 458763, 2, 0, 458781, 6, 0, 458782, 6, 0, 458783, 6, 0, 458784, 6, 0, 458785, 6, 0, 458786, 6, 0, 458787, 6, 0, 458788, 6, 0, 458789, 6, 0, 458790, 6, 0, 458791, 6, 0, 458792, 6, 0, 458793, 6, 0, 458794, 6, 0, 524299, 2, 0, 524305, 2, 0, 524317, 6, 0, 524318, 6, 0, 524319, 6, 0, 524320, 6, 0, 524321, 6, 0, 524322, 6, 0, 524323, 6, 0, 524324, 6, 0, 524325, 6, 0, 524326, 6, 0, 524327, 6, 0, 524328, 6, 0, 524329, 6, 0, 524330, 6, 0, 589835, 2, 0, 589841, 2, 0, 589842, 6, 0, 589843, 6, 0, 589844, 6, 0, 589845, 6, 0, 589846, 6, 0, 589847, 6, 0, 589848, 6, 0, 589849, 6, 0, 589850, 6, 0, 589851, 6, 0, 589852, 6, 0, 589853, 6, 0, 589854, 6, 0, 589855, 6, 0, 589856, 6, 0, 589857, 6, 0, 589858, 6, 0, 589859, 6, 0, 589860, 6, 0, 589861, 6, 0, 589862, 6, 0, 589863, 6, 0, 589864, 6, 0, 589865, 6, 0, 589866, 6, 0, 655371, 2, 0, 655377, 2, 0, 655378, 6, 0, 655379, 6, 0, 655380, 6, 0, 655381, 6, 0, 655382, 6, 0, 655383, 6, 0, 655384, 6, 0, 655385, 6, 0, 655386, 6, 0, 655387, 6, 0, 655388, 6, 0, 655389, 6, 0, 655390, 6, 0, 655391, 6, 0, 655392, 6, 0, 655393, 6, 0, 655394, 6, 0, 655395, 6, 0, 655396, 6, 0, 655397, 6, 0, 655398, 6, 0, 655399, 6, 0, 655400, 6, 0, 655401, 6, 0, 655402, 6, 0, 720907, 2, 0, 720913, 2, 0, 720914, 6, 0, 720915, 6, 0, 720916, 6, 0, 720917, 6, 0, 720918, 6, 0, 720919, 6, 0, 720920, 6, 0, 720921, 6, 0, 720922, 6, 0, 720923, 6, 0, 720924, 6, 0, 720925, 6, 0, 720926, 6, 0, 720927, 6, 0, 720928, 6, 0, 720929, 6, 0, 720930, 6, 0, 720931, 6, 0, 720932, 6, 0, 720933, 6, 0, 720934, 6, 0, 720935, 6, 0, 720936, 6, 0, 720937, 6, 0, 720938, 6, 0, 786443, 2, 0, 786449, 2, 0, 786450, 6, 0, 786451, 6, 0, 786452, 6, 0, 786453, 6, 0, 786454, 6, 0, 786455, 6, 0, 786456, 6, 0, 786457, 6, 0, 786458, 6, 0, 786459, 6, 0, 786460, 6, 0, 786461, 6, 0, 786462, 6, 0, 786463, 6, 0, 786464, 6, 0, 786465, 6, 0, 786466, 6, 0, 786467, 6, 0, 786468, 6, 0, 786469, 6, 0, 786470, 6, 0, 786471, 6, 0, 786472, 6, 0, 786473, 6, 0, 786474, 6, 0, 851979, 2, 0, 851985, 2, 0, 851986, 6, 0, 851987, 6, 0, 851988, 6, 0, 851989, 6, 0, 851990, 6, 0, 851991, 6, 0, 851992, 6, 0, 851993, 6, 0, 851994, 6, 0, 851995, 6, 0, 851996, 6, 0, 851997, 6, 0, 851998, 6, 0, 851999, 6, 0, 852000, 6, 0, 852001, 6, 0, 852002, 6, 0, 852003, 6, 0, 852004, 6, 0, 852005, 6, 0, 852006, 6, 0, 852007, 6, 0, 852008, 6, 0, 852009, 6, 0, 852010, 6, 0, 917515, 2, 0, 917521, 2, 0, 917522, 6, 0, 917523, 6, 0, 917524, 6, 0, 917525, 6, 0, 917526, 6, 0, 917527, 6, 0, 917528, 6, 0, 917529, 6, 0, 917530, 6, 0, 917531, 6, 0, 917532, 6, 0, 917533, 6, 0, 917534, 6, 0, 917535, 6, 0, 917536, 6, 0, 917537, 6, 0, 917538, 6, 0, 917539, 6, 0, 917540, 6, 0, 917541, 6, 0, 917542, 6, 0, 917543, 6, 0, 917544, 6, 0, 917545, 6, 0, 917546, 6, 0, 983051, 2, 0, 983057, 2, 0, 983058, 6, 0, 983059, 6, 0, 983060, 6, 0, 983061, 6, 0, 983062, 6, 0, 983063, 6, 0, 983064, 6, 0, 983065, 6, 0, 983066, 6, 0, 983067, 6, 0, 983068, 6, 0, 983069, 6, 0, 983070, 6, 0, 983071, 6, 0, 983072, 6, 0, 983073, 6, 0, 983074, 6, 0, 983075, 6, 0, 983076, 6, 0, 983077, 6, 0, 983078, 6, 0, 983079, 6, 0, 983080, 6, 0, 983081, 6, 0, 983082, 6, 0, 1048587, 2, 0, 1048593, 2, 0, 1048594, 6, 0, 1048595, 6, 0, 1048596, 6, 0, 1048597, 6, 0, 1048598, 6, 0, 1048599, 6, 0, 1048600, 6, 0, 1048601, 6, 0, 1048602, 6, 0, 1048603, 6, 0, 1048604, 6, 0, 1048605, 6, 0, 1048606, 6, 0, 1048607, 6, 0, 1048608, 6, 0, 1048609, 6, 0, 1048610, 6, 0, 1048611, 6, 0, 1048612, 6, 0, 1048613, 6, 0, 1048614, 6, 0, 1048615, 6, 0, 1048616, 6, 0, 1048617, 6, 0, 1048618, 6, 0, 1114123, 2, 0, 1114129, 2, 0, 1114130, 6, 0, 1114131, 6, 0, 1114132, 6, 0, 1114133, 6, 0, 1114134, 6, 0, 1114135, 6, 0, 1114136, 6, 0, 1114137, 6, 0, 1114138, 6, 0, 1114139, 6, 0, 1114140, 6, 0, 1114141, 6, 0, 1114142, 6, 0, 1114143, 6, 0, 1114144, 6, 0, 1114145, 6, 0, 1114146, 6, 0, 1114147, 6, 0, 1114148, 6, 0, 1114149, 6, 0, 1114150, 6, 0, 1114151, 6, 0, 1114152, 6, 0, 1114153, 6, 0, 1114154, 6, 0, 1179659, 2, 0, 1179665, 2, 0, 1179666, 6, 0, 1179667, 6, 0, 1179668, 6, 0, 1179669, 6, 0, 1179670, 6, 0, 1179671, 6, 0, 1179672, 6, 0, 1179673, 6, 0, 1179674, 6, 0, 1179675, 6, 0, 1179676, 6, 0, 1179677, 6, 0, 1179678, 6, 0, 1179679, 6, 0, 1179680, 6, 0, 1179681, 6, 0, 1179682, 6, 0, 1179683, 6, 0, 1179684, 6, 0, 1179685, 6, 0, 1179686, 6, 0, 1179687, 6, 0, 1179688, 6, 0, 1179689, 6, 0, 1179690, 6, 0, 1245195, 2, 0, 1245201, 2, 0, 1245202, 6, 0, 1245203, 6, 0, 1245204, 6, 0, 1245205, 6, 0, 1245206, 6, 0, 1245207, 6, 0, 1245208, 6, 0, 1245209, 6, 0, 1245210, 6, 0, 1245211, 6, 0, 1245212, 6, 0, 1245213, 6, 0, 1245214, 6, 0, 1245215, 6, 0, 1245216, 6, 0, 1245217, 6, 0, 1245218, 6, 0, 1245219, 6, 0, 1245220, 6, 0, 1245221, 6, 0, 1245222, 6, 0, 1245223, 6, 0, 1245224, 6, 0, 1245225, 6, 0, 1245226, 6, 0, 1310731, 2, 0, 1310737, 2, 0, 1310738, 6, 0, 1310739, 6, 0, 1310740, 6, 0, 1310741, 6, 0, 1310742, 6, 0, 1310743, 6, 0, 1310744, 6, 0, 1310745, 6, 0, 1310746, 6, 0, 1310747, 6, 0, 1310748, 6, 0, 1310749, 6, 0, 1310750, 6, 0, 1310751, 6, 0, 1310752, 6, 0, 1310753, 6, 0, 1310754, 6, 0, 1310755, 6, 0, 1310756, 6, 0, 1310757, 6, 0, 1310758, 6, 0, 1310759, 6, 0, 1310760, 6, 0, 1310761, 6, 0, 1310762, 6, 0, 1376267, 2, 0, 1376273, 2, 0, 1376274, 6, 0, 1376275, 6, 0, 1376276, 6, 0, 1376277, 6, 0, 1376278, 6, 0, 1376279, 6, 0, 1376280, 6, 0, 1376281, 6, 0, 1376282, 6, 0, 1376283, 6, 0, 1376284, 6, 0, 1376285, 6, 0, 1376286, 6, 0, 1376287, 6, 0, 1376288, 6, 0, 1376289, 6, 0, 1376290, 6, 0, 1376291, 6, 0, 1376292, 6, 0, 1376293, 6, 0, 1376294, 6, 0, 1376295, 6, 0, 1376296, 6, 0, 1376297, 6, 0, 1376298, 6, 0, 1507304, 2, 0, 1507305, 2, 0, 1507306, 2, 0, 1507307, 2, 0, 1507308, 2, 0, 1507309, 2, 0, 1507310, 2, 0, 1507311, 2, 0, 1507312, 2, 0, 1507313, 2, 0, 1507314, 2, 0, 1507315, 2, 0, 1507316, 2, 0, 1507317, 2, 0, 1507318, 2, 0, 1507319, 2, 0, 1507320, 2, 0, 1507321, 2, 0, 1507322, 2, 0, 1507323, 2, 0, 1507324, 2, 0, 1507325, 2, 0, 1507326, 2, 0, 1507327, 2, 0, 1441792, 2, 0, 1441793, 2, 0, 1441794, 2, 0, 1441795, 2, 0, 1441796, 2, 0, 1441797, 2, 0, 1441798, 2, 0, 1441799, 2, 0, 1441800, 2, 0, 1441801, 2, 0, 1441802, 2, 0, 1441803, 2, 0, 1441804, 2, 0, 1441805, 2, 0, 1441806, 2, 0, 1441807, 2, 0, 1441808, 2, 0, 1441809, 2, 0, 1441810, 2, 0, 1441811, 2, 0, 1441812, 2, 0, 1441813, 2, 0, 1441814, 2, 0, 1441815, 2, 0, 1441816, 2, 0, 1441817, 2, 0, 1441818, 2, 0, 1441819, 2, 0, 1441820, 2, 0, 1441821, 2, 0, 1441822, 2, 0, 1441823, 2, 0, 1441824, 2, 0, 1441825, 2, 0, 1441826, 2, 0, 1441827, 2, 0, 1441828, 2, 0, 1441829, 2, 0, 1441830, 2, 0, 1441831, 2, 0, 1441832, 2, 0, 1441833, 2, 0, 1441834, 2, 0, 1441835, 2, 0, 1507338, 2, 0, 1507339, 2, 0, 1507340, 2, 0, 1507347, 2, 0 )

[node name="TileMap" type="TileMap" parent="."]
z_index = -6
tile_set = ExtResource( 3 )
cell_size = Vector2( 32, 32 )
format = 1
tile_data = PoolIntArray( -720920, 2, 0, -720919, 2, 0, -720918, 2, 0, -720917, 2, 0, -720916, 2, 0, -720915, 2, 0, -720914, 2, 0, -720913, 2, 0, -720912, 2, 0, -720911, 2, 0, -720910, 2, 0, -720909, 2, 0, -720908, 2, 0, -720907, 2, 0, -720906, 2, 0, -720905, 2, 0, -720904, 2, 0, -720903, 2, 0, -720902, 2, 0, -720901, 2, 0, -720900, 2, 0, -720899, 2, 0, -720898, 2, 0, -720897, 2, 0, -786432, 2, 0, -786431, 2, 0, -786430, 2, 0, -786429, 2, 0, -786428, 2, 0, -786427, 2, 0, -786426, 2, 0, -786425, 2, 0, -786424, 2, 0, -786406, 2, 0, -786405, 2, 0, -786404, 2, 0, -786403, 2, 0, -786402, 2, 0, -786401, 2, 0, -786400, 2, 0, -786399, 2, 0, -786398, 2, 0, -786397, 2, 0, -786396, 2, 0, -786395, 2, 0, -786394, 2, 0, -786393, 2, 0, -786392, 2, 0, -786391, 2, 0, -786390, 2, 0, -786389, 2, 0, -655384, 2, 0, -720853, 2, 0, -589848, 2, 0, -655317, 2, 0, -524312, 2, 0, -589781, 2, 0, -458776, 2, 0, -524245, 2, 0, -393240, 2, 0, -458709, 2, 0, -327704, 2, 0, -393173, 2, 0, -262168, 2, 0, -327637, 2, 0, -196632, 2, 0, -262101, 2, 0, -131096, 2, 0, -196565, 2, 0, -65560, 2, 0, -131029, 2, 0, -24, 2, 0, -65493, 2, 0, 65512, 2, 0, 43, 2, 0, 131048, 2, 0, 65579, 2, 0, 196584, 2, 0, 131115, 2, 0, 262120, 2, 0, 196651, 2, 0, 327656, 2, 0, 262172, 2, 0, 262173, 2, 0, 262174, 2, 0, 262175, 2, 0, 262176, 2, 0, 262177, 2, 0, 262178, 2, 0, 262179, 2, 0, 262180, 2, 0, 262181, 2, 0, 262182, 2, 0, 262187, 2, 0, 393192, 2, 0, 327708, 2, 0, 327718, 2, 0, 327719, 2, 0, 327720, 2, 0, 327721, 2, 0, 327722, 2, 0, 327723, 2, 0, 458728, 2, 0, 393244, 2, 0, 393259, 2, 0, 524264, 2, 0, 458780, 2, 0, 458795, 2, 0, 589800, 2, 0, 524306, 2, 0, 524307, 2, 0, 524308, 2, 0, 524309, 2, 0, 524310, 2, 0, 524314, 2, 0, 524315, 2, 0, 524316, 2, 0, 524331, 2, 0, 655336, 2, 0, 589867, 2, 0, 720872, 2, 0, 655403, 2, 0, 786408, 2, 0, 720939, 2, 0, 851944, 2, 0, 786475, 2, 0, 917480, 2, 0, 852011, 2, 0, 983016, 2, 0, 917547, 2, 0, 1048552, 2, 0, 983083, 2, 0, 1114088, 2, 0, 1048619, 2, 0, 1179624, 2, 0, 1114155, 2, 0, 1245160, 2, 0, 1179691, 2, 0, 1310696, 2, 0, 1245227, 2, 0, 1376232, 2, 0, 1310763, 2, 0, 1441768, 2, 0, 1376299, 2, 0, 1507338, 2, 0, 1507340, 2, 0, 1507341, 2, 0, 1507342, 2, 0, 1507343, 2, 0, 1507344, 2, 0, 1507345, 2, 0, 1507346, 2, 0 )

[node name="Enemies" type="Node" parent="."]

[node name="SingletDude" parent="Enemies" instance=ExtResource( 4 )]
position = Vector2( 1295.95, 280.931 )
rotation = -3.94204

[node name="SingletDude2" parent="Enemies" instance=ExtResource( 4 )]
position = Vector2( 1184.92, 226.387 )
rotation = -4.22084

[node name="Enemy" parent="Enemies" instance=ExtResource( 5 )]
position = Vector2( 666.221, 350.643 )
rotation = 1.33485
health = 4.0
attack_other_enemies_if_hit = true

[node name="Enemy2" parent="Enemies" instance=ExtResource( 5 )]
position = Vector2( 1125.52, 566.096 )
rotation = 2.47759
health = 4.0
input_vector_turbulence = Vector2( 0.9, 0.5 )
attack_other_enemies_if_hit = true
orbit_player = true

[node name="Enemy3" parent="Enemies" instance=ExtResource( 5 )]
position = Vector2( 990.237, 661.296 )
rotation = -0.384555
health = 4.0
attack_other_enemies_if_hit = true
always_aggro = true

[node name="Enemy4" parent="Enemies" instance=ExtResource( 5 )]
position = Vector2( 614.446, 659.626 )
rotation = -1.03848
health = 4.0
attack_other_enemies_if_hit = true
always_aggro = true

[node name="Enemy5" parent="Enemies" instance=ExtResource( 5 )]
position = Vector2( 1025.31, 191.976 )
rotation = 1.71591
health = 4.0
attack_other_enemies_if_hit = true

[node name="Enemy6" parent="Enemies" instance=ExtResource( 5 )]
position = Vector2( 430.612, 641.034 )
rotation = -1.48059
health = 4.0
attack_other_enemies_if_hit = true

[node name="Enemy7" parent="Enemies" instance=ExtResource( 5 )]
position = Vector2( 515.791, 639.364 )
rotation = -1.67778
health = 4.0
attack_other_enemies_if_hit = true

[node name="Props" type="Node" parent="."]

[node name="Car" parent="Props" instance=ExtResource( 6 )]
position = Vector2( 742.607, 593.71 )
rotation = -2.61183

[node name="Car11" parent="Props" instance=ExtResource( 6 )]
position = Vector2( 169.8, 613.269 )
rotation = -2.43067

[node name="Car7" parent="Props" instance=ExtResource( 6 )]
position = Vector2( 48.0084, -13.6737 )
rotation = -2.20094

[node name="Car9" parent="Props" instance=ExtResource( 6 )]
position = Vector2( -466.012, -21.2477 )
rotation = -2.01977

[node name="Car8" parent="Props" instance=ExtResource( 6 )]
position = Vector2( 65.6263, 174.251 )
rotation = -2.86528

[node name="Car13" parent="Props" instance=ExtResource( 6 )]
position = Vector2( -448.394, 166.677 )
rotation = -2.68412

[node name="Car2" parent="Props" instance=ExtResource( 6 )]
position = Vector2( 1188.46, 446.251 )
rotation = -4.61645

[node name="Car16" parent="Props" instance=ExtResource( 6 )]
position = Vector2( 1077.88, 341.071 )
rotation = -4.43529

[node name="Car3" parent="Props" instance=ExtResource( 6 )]
position = Vector2( 1064.09, -48.8203 )
rotation = -4.21526

[node name="Car15" parent="Props" instance=ExtResource( 6 )]
position = Vector2( 550.073, -56.3943 )
rotation = -4.0341

[node name="Car4" parent="Props" instance=ExtResource( 6 )]
position = Vector2( 3.92664, -212.637 )
rotation = -5.09597

[node name="Car10" parent="Props" instance=ExtResource( 6 )]
position = Vector2( -510.094, -220.21 )
rotation = -4.91481

[node name="Car5" parent="Props" instance=ExtResource( 6 )]
position = Vector2( -79.5269, 368.446 )
rotation = -6.36228

[node name="Car14" parent="Props" instance=ExtResource( 6 )]
position = Vector2( -593.547, 360.873 )
rotation = -6.18112

[node name="Car6" parent="Props" instance=ExtResource( 6 )]
position = Vector2( -250.775, 82.9129 )
rotation = -6.50538

[node name="Car17" parent="Props" instance=ExtResource( 6 )]
position = Vector2( 1297.9, 614.722 )
rotation = -7.46282

[node name="Car12" parent="Props" instance=ExtResource( 6 )]
position = Vector2( -764.795, 75.3392 )
rotation = -6.32422

