[gd_resource type="TileSet" load_steps=19 format=2]

[ext_resource path="res://spr/tiles/test.png" type="Texture" id=1]
[ext_resource path="res://spr/tiles/testslope.png" type="Texture" id=2]
[ext_resource path="res://spr/tiles/rock_slope.png" type="Texture" id=3]
[ext_resource path="res://spr/tiles/sidewalk1.png" type="Texture" id=4]
[ext_resource path="res://spr/tiles/sidewalk2.png" type="Texture" id=5]
[ext_resource path="res://spr/tiles/sidewalk3.png" type="Texture" id=6]
[ext_resource path="res://spr/tiles/tile_floor.png" type="Texture" id=7]
[ext_resource path="res://spr/tiles/brick.png" type="Texture" id=8]
[ext_resource path="res://spr/tiles/building.png" type="Texture" id=9]
[ext_resource path="res://spr/tiles/building_corner.png" type="Texture" id=10]
[ext_resource path="res://spr/tiles/exotic_tiles.png" type="Texture" id=11]
[ext_resource path="res://spr/tiles/green_tile.png" type="Texture" id=12]
[ext_resource path="res://spr/tiles/road.png" type="Texture" id=13]
[ext_resource path="res://spr/tiles/road_lines.png" type="Texture" id=14]
[ext_resource path="res://spr/tiles/rock.png" type="Texture" id=15]

[sub_resource type="RectangleShape2D" id=1]
extents = Vector2( 16, 16 )

[sub_resource type="ConvexPolygonShape2D" id=2]
points = PoolVector2Array( -16, -16, 16, 16, -16, 16 )

[sub_resource type="RectangleShape2D" id=3]
extents = Vector2( 16, 16 )

[resource]
0/name = "Test"
0/texture = ExtResource( 1 )
0/tex_offset = Vector2( 0, 0 )
0/modulate = Color( 1, 1, 1, 1 )
0/region = Rect2( 0, 0, 32, 32 )
0/tile_mode = 0
0/occluder_offset = Vector2( 16, 16 )
0/navigation_offset = Vector2( 16, 16 )
0/shapes = [ {
"autotile_coord": Vector2( 0, 0 ),
"one_way": false,
"one_way_margin": 1.0,
"shape": SubResource( 1 ),
"shape_transform": Transform2D( 1, 0, 0, 1, 16, 16 )
} ]
0/z_index = 0
1/name = "Test2"
1/texture = ExtResource( 2 )
1/tex_offset = Vector2( 0, 0 )
1/modulate = Color( 1, 1, 1, 1 )
1/region = Rect2( 0, 0, 32, 32 )
1/tile_mode = 0
1/occluder_offset = Vector2( 16, 16 )
1/navigation_offset = Vector2( 16, 16 )
1/shapes = [ {
"autotile_coord": Vector2( 0, 0 ),
"one_way": false,
"one_way_margin": 1.0,
"shape": SubResource( 2 ),
"shape_transform": Transform2D( 1, 0, 0, 1, 16, 16 )
} ]
1/z_index = 0
2/name = "brick"
2/texture = ExtResource( 8 )
2/tex_offset = Vector2( 0, 0 )
2/modulate = Color( 1, 1, 1, 1 )
2/region = Rect2( 0, 0, 32, 32 )
2/tile_mode = 0
2/occluder_offset = Vector2( 16, 16 )
2/navigation_offset = Vector2( 16, 16 )
2/shapes = [ {
"autotile_coord": Vector2( 0, 0 ),
"one_way": false,
"one_way_margin": 1.0,
"shape": SubResource( 3 ),
"shape_transform": Transform2D( 1, 0, 0, 1, 16, 16 )
} ]
2/z_index = 0
3/name = "building"
3/texture = ExtResource( 9 )
3/tex_offset = Vector2( 0, 0 )
3/modulate = Color( 1, 1, 1, 1 )
3/region = Rect2( 0, 0, 32, 32 )
3/tile_mode = 0
3/occluder_offset = Vector2( 16, 16 )
3/navigation_offset = Vector2( 16, 16 )
3/shapes = [ {
"autotile_coord": Vector2( 0, 0 ),
"one_way": false,
"one_way_margin": 1.0,
"shape": SubResource( 3 ),
"shape_transform": Transform2D( 1, 0, 0, 1, 16, 16 )
} ]
3/z_index = 0
4/name = "building_corner"
4/texture = ExtResource( 10 )
4/tex_offset = Vector2( 0, 0 )
4/modulate = Color( 1, 1, 1, 1 )
4/region = Rect2( 0, 0, 32, 32 )
4/tile_mode = 0
4/occluder_offset = Vector2( 16, 16 )
4/navigation_offset = Vector2( 16, 16 )
4/shapes = [ {
"autotile_coord": Vector2( 0, 0 ),
"one_way": false,
"one_way_margin": 1.0,
"shape": SubResource( 3 ),
"shape_transform": Transform2D( 1, 0, 0, 1, 16, 16 )
} ]
4/z_index = 0
5/name = "exotic_tiles"
5/texture = ExtResource( 11 )
5/tex_offset = Vector2( 0, 0 )
5/modulate = Color( 1, 1, 1, 1 )
5/region = Rect2( 0, 0, 32, 32 )
5/tile_mode = 0
5/occluder_offset = Vector2( 16, 16 )
5/navigation_offset = Vector2( 16, 16 )
5/shapes = [  ]
5/z_index = 0
6/name = "green_tile"
6/texture = ExtResource( 12 )
6/tex_offset = Vector2( 0, 0 )
6/modulate = Color( 1, 1, 1, 1 )
6/region = Rect2( 0, 0, 32, 32 )
6/tile_mode = 0
6/occluder_offset = Vector2( 16, 16 )
6/navigation_offset = Vector2( 16, 16 )
6/shapes = [  ]
6/z_index = 0
7/name = "road"
7/texture = ExtResource( 13 )
7/tex_offset = Vector2( 0, 0 )
7/modulate = Color( 1, 1, 1, 1 )
7/region = Rect2( 0, 0, 32, 32 )
7/tile_mode = 0
7/occluder_offset = Vector2( 16, 16 )
7/navigation_offset = Vector2( 16, 16 )
7/shapes = [  ]
7/z_index = 0
8/name = "road_lines"
8/texture = ExtResource( 14 )
8/tex_offset = Vector2( 0, 0 )
8/modulate = Color( 1, 1, 1, 1 )
8/region = Rect2( 0, 0, 32, 32 )
8/tile_mode = 0
8/occluder_offset = Vector2( 16, 16 )
8/navigation_offset = Vector2( 16, 16 )
8/shapes = [  ]
8/z_index = 0
9/name = "rock"
9/texture = ExtResource( 15 )
9/tex_offset = Vector2( 0, 0 )
9/modulate = Color( 1, 1, 1, 1 )
9/region = Rect2( 0, 0, 32, 32 )
9/tile_mode = 0
9/occluder_offset = Vector2( 16, 16 )
9/navigation_offset = Vector2( 16, 16 )
9/shapes = [  ]
9/z_index = 0
10/name = "rock_slope"
10/texture = ExtResource( 3 )
10/tex_offset = Vector2( 0, 0 )
10/modulate = Color( 1, 1, 1, 1 )
10/region = Rect2( 0, 0, 32, 32 )
10/tile_mode = 0
10/occluder_offset = Vector2( 16, 16 )
10/navigation_offset = Vector2( 16, 16 )
10/shapes = [  ]
10/z_index = 0
11/name = "sidewalk1"
11/texture = ExtResource( 4 )
11/tex_offset = Vector2( 0, 0 )
11/modulate = Color( 1, 1, 1, 1 )
11/region = Rect2( 0, 0, 32, 32 )
11/tile_mode = 0
11/occluder_offset = Vector2( 16, 16 )
11/navigation_offset = Vector2( 16, 16 )
11/shapes = [  ]
11/z_index = 0
12/name = "sidewalk2"
12/texture = ExtResource( 5 )
12/tex_offset = Vector2( 0, 0 )
12/modulate = Color( 1, 1, 1, 1 )
12/region = Rect2( 0, 0, 32, 32 )
12/tile_mode = 0
12/occluder_offset = Vector2( 16, 16 )
12/navigation_offset = Vector2( 16, 16 )
12/shapes = [  ]
12/z_index = 0
13/name = "sidewalk3"
13/texture = ExtResource( 6 )
13/tex_offset = Vector2( 0, 0 )
13/modulate = Color( 1, 1, 1, 1 )
13/region = Rect2( 0, 0, 32, 32 )
13/tile_mode = 0
13/occluder_offset = Vector2( 16, 16 )
13/navigation_offset = Vector2( 16, 16 )
13/shapes = [  ]
13/z_index = 0
14/name = "test"
14/texture = ExtResource( 1 )
14/tex_offset = Vector2( 0, 0 )
14/modulate = Color( 1, 1, 1, 1 )
14/region = Rect2( 0, 0, 32, 32 )
14/tile_mode = 0
14/occluder_offset = Vector2( 16, 16 )
14/navigation_offset = Vector2( 16, 16 )
14/shapes = [  ]
14/z_index = 0
15/name = "testslope"
15/texture = ExtResource( 2 )
15/tex_offset = Vector2( 0, 0 )
15/modulate = Color( 1, 1, 1, 1 )
15/region = Rect2( 0, 0, 32, 32 )
15/tile_mode = 0
15/occluder_offset = Vector2( 16, 16 )
15/navigation_offset = Vector2( 16, 16 )
15/shapes = [  ]
15/z_index = 0
16/name = "tile_floor"
16/texture = ExtResource( 7 )
16/tex_offset = Vector2( 0, 0 )
16/modulate = Color( 1, 1, 1, 1 )
16/region = Rect2( 0, 0, 32, 32 )
16/tile_mode = 0
16/occluder_offset = Vector2( 16, 16 )
16/navigation_offset = Vector2( 16, 16 )
16/shapes = [  ]
16/z_index = 0

